<?xml version="1.0" encoding="utf-8"?>
<!-- Generator: Adobe Illustrator 19.0.0, SVG Export Plug-In . SVG Version: 6.00 Build 0)  -->
<svg version="1.1" id="Calque_1"
	 xmlns="http://www.w3.org/2000/svg" xmlns:xlink="http://www.w3.org/1999/xlink" x="0px" y="0px" viewBox="125 -60 700 400"
	 enable-background="new 125 -60 700 400" xml:space="preserve">
<path id="XMLID_2_" fill="#EFEFEF" d="M387.3,148.1H242.8c-3.9,0-7-3.1-7-7V-27.6h158.6v168.7C394.3,145,391.2,148.1,387.3,148.1z"
	/>
<path id="XMLID_6_" fill="#0D3755" d="M396.2-26.7H233.8c-4.1,0-7.5-3.4-7.5-7.5s3.4-7.5,7.5-7.5h162.4c4.1,0,7.5,3.4,7.5,7.5
	S400.4-26.7,396.2-26.7z"/>
<path id="XMLID_46_" fill="#E0E0E0" d="M315-27.6h-79.3v168.7c0,3.9,3.1,7,7,7H315V-27.6z"/>
<path id="XMLID_62_" fill="#0D2A3E" d="M315-41.7h-81.2c-4.1,0-7.5,3.4-7.5,7.5s3.4,7.5,7.5,7.5H315C315-26.7,315-41.7,315-41.7z"/>
<path id="XMLID_11_" fill="#F9B233" d="M310.6-41.9h-15v57.1c0,0-1.7,8.1,7.7,8.1c9.4,0,7.3-8.1,7.3-8.1V-41.9z"/>
<path id="XMLID_4_" fill="#F39F1C" d="M251.7-41.9V45c0,0-0.9,7.7,6,7.7s6.4-8.1,6.4-8.1V-2.1c0,0-1.8-11.6,8.1-11.6
	c8.7,0,8.6,10.7,8.6,10.7v59.9c0,0-1.7,8.1,7.7,8.1c9.4,0,7.3-8.1,7.3-8.1v-98.8H251.7z"/>
<g id="XMLID_129_">
	<path id="XMLID_3_" fill="#B6B6B7" d="M702.4-16.8L552,45.4l40.5,19.1L740.6-5.3l-36.7-11.6C703.5-17.1,702.9-17,702.4-16.8z"/>
	<path id="XMLID_19_" fill="#B6B6B7" d="M592.5,64.5v19.3c0,1.7,1.8,2.8,3.3,2l143.6-74.2c0.8-0.4,1.2-1.2,1.2-2V-5.3L592.5,64.5
		L592.5,64.5z"/>
	<path id="XMLID_61_" fill="#9F9F9F" d="M552,45.4v15.8c0,1.6,1.6,2.7,3.1,2.1l18.7-7.6L552,45.4L552,45.4z"/>
	<path id="XMLID_297_" fill="#B6B6B7" d="M702.4-16.8L552,45.4l40.5,19.1L740.6-5.3l-36.7-11.6C703.5-17.1,702.9-17,702.4-16.8z"/>
	<path id="XMLID_183_" fill="#A7A7A7" d="M592.5,84.9c-0.5,0-1-0.4-1.1-0.9l-2.9-14.1l-38.4-18.3l4.3,11.2c0.2,0.6-0.1,1.2-0.7,1.5
		c-0.6,0.2-1.2-0.1-1.5-0.7l-5.3-13.8c-0.2-0.4-0.1-0.9,0.3-1.2c0.3-0.3,0.8-0.4,1.3-0.2L590,68.2c0.3,0.2,0.6,0.4,0.6,0.8l3,14.6
		c0.1,0.6-0.3,1.2-0.9,1.3L592.5,84.9L592.5,84.9z"/>
</g>
<path id="XMLID_341_" fill="#B6B6B7" d="M646.3,39.1l-53.8,25.4v19.3c0,1.7,1.8,2.8,3.3,2l50.5-26.1
	C646.3,59.7,646.3,39.1,646.3,39.1z"/>
<path id="XMLID_356_" fill="#B6B6B7" d="M646.3,6.4l-94.3,39l40.5,19.1l53.8-25.4V6.4z"/>
<path id="XMLID_7_" fill="#B7A791" d="M523.8,304.4c-58.6,0-106.3-47.7-106.3-106.3S465.2,91.8,523.8,91.8s106.3,47.7,106.3,106.3
	S582.4,304.4,523.8,304.4L523.8,304.4z M523.8,100.8c-53.7,0-97.3,43.7-97.3,97.3s43.7,97.3,97.3,97.3s97.3-43.7,97.3-97.3
	S577.4,100.8,523.8,100.8L523.8,100.8z"/>
<path id="XMLID_8_" fill="#B7A791" d="M523.8,321.9c-65,0-117.9-52.9-117.9-117.9S458.8,86.1,523.8,86.1S641.7,138.9,641.7,204
	S588.8,321.9,523.8,321.9L523.8,321.9z M523.8,95c-60.1,0-109,48.9-109,109s48.9,109,109,109c60.1,0,109-48.9,109-109
	S583.9,95,523.8,95z"/>
<path id="XMLID_9_" fill="#B7A791" d="M541.2,315.6c-62.6,0-113.5-50.9-113.5-113.5S478.6,88.6,541.2,88.6s113.5,50.9,113.5,113.5
	S603.8,315.6,541.2,315.6z M541.2,97.4c-57.7,0-104.6,46.9-104.6,104.6s46.9,104.6,104.6,104.6S645.8,259.7,645.8,202
	S598.9,97.4,541.2,97.4L541.2,97.4z"/>
<path id="XMLID_10_" fill="#998873" d="M292.2,306.3c-6.4,0-12.9-0.7-19.5-2c-2.4-0.5-4-2.8-3.5-5.3c0.5-2.4,2.8-4,5.3-3.5
	c41.8,8.4,78.1-11.9,107.9-60.4c22.6-36.9,32.7-76.7,32.8-77.1c0.6-2.4,3-3.8,5.4-3.3c2.4,0.6,3.9,3,3.3,5.4
	c-0.4,1.7-10.5,41.6-33.9,79.7C363.1,283.7,329.6,306.3,292.2,306.3L292.2,306.3z"/>
<path id="XMLID_12_" fill="#B7A791" d="M468.9,307.8c-0.6,0-1.2-0.1-1.8-0.4c-0.4-0.2-41.5-18.4-88-35.3
	C318.2,250,276,240.4,257,244.2c-2.4,0.5-4.8-1.1-5.3-3.5s1.1-4.8,3.5-5.3c49.3-9.9,208.7,60.7,215.5,63.7c2.3,1,3.3,3.6,2.3,5.9
	C472.3,306.8,470.6,307.8,468.9,307.8L468.9,307.8z"/>
<path id="XMLID_89_" fill="#998873" d="M536.6,294.6c-4.2,0.6-8.5,0.9-12.8,0.9c-53.7,0-97.3-43.7-97.3-97.3s43.7-97.3,97.3-97.3
	c4.4,0,8.6,0.3,12.8,0.9v-9c-4.2-0.5-8.5-0.8-12.8-0.8c-58.6,0-106.3,47.7-106.3,106.3s47.7,106.3,106.3,106.3
	c4.3,0,8.6-0.3,12.8-0.8V294.6L536.6,294.6z"/>
<path id="XMLID_116_" fill="#998873" d="M536.6,312.2c-4.2,0.5-8.5,0.8-12.8,0.8c-60.1,0-109-48.9-109-109s48.9-109,109-109
	c4.3,0,8.6,0.3,12.8,0.8v-9c-4.2-0.5-8.5-0.7-12.8-0.7c-65,0-117.9,52.9-117.9,117.9s52.9,117.9,117.9,117.9c4.3,0,8.6-0.3,12.8-0.7
	V312.2L536.6,312.2z"/>
<path id="XMLID_140_" fill="#998873" d="M536.6,306.5c-55.5-2.4-100-48.4-100-104.5s44.4-102,100-104.5v-8.9
	C476.1,91,427.7,141,427.7,202s48.4,111,108.9,113.4V306.5z"/>
</svg>
