<?xml version="1.0" encoding="utf-8"?>
<!-- Generator: Adobe Illustrator 16.0.0, SVG Export Plug-In . SVG Version: 6.00 Build 0)  -->
<!DOCTYPE svg PUBLIC "-//W3C//DTD SVG 1.1//EN" "http://www.w3.org/Graphics/SVG/1.1/DTD/svg11.dtd">
<svg version="1.1" id="Calque_1" xmlns="http://www.w3.org/2000/svg" xmlns:xlink="http://www.w3.org/1999/xlink" x="0px" y="0px"
	 width="703.502px" height="525.112px" viewBox="0 0 703.502 525.112" enable-background="new 0 0 703.502 525.112"
	 xml:space="preserve">
<path opacity="0.1" fill="#DBDBDB" d="M319.511,357.016c0,0,42.046,57.938,5.044,93.792c-37,35.854-105.444,51.62-22.883,71.676
	c82.561,20.055,36.603-80.671,174.172-98.274c137.568-17.604,261.87-5.833,219.086-85.034
	c-42.783-79.203-153.633-38.775-139.227-138.54C570.109,100.87,668.73-10.767,539.259,0.834
	C409.79,12.437,450.25,98.9,451.432,165.055c1.182,66.153,32.889,161.354-75.502,119.034
	C267.538,241.77,145.276,139.821,81.958,196.718C18.638,253.613-39.76,294.854,35.423,318.105
	c75.183,23.25,93.763,7.622,169.396-4.32C280.451,301.843,319.511,357.016,319.511,357.016z"/>
</svg>
