<?xml version="1.0" encoding="utf-8"?>
<!-- Generator: Adobe Illustrator 16.0.0, SVG Export Plug-In . SVG Version: 6.00 Build 0)  -->
<!DOCTYPE svg PUBLIC "-//W3C//DTD SVG 1.1//EN" "http://www.w3.org/Graphics/SVG/1.1/DTD/svg11.dtd">
<svg version="1.1" id="Calque_1" xmlns="http://www.w3.org/2000/svg" xmlns:xlink="http://www.w3.org/1999/xlink" x="0px" y="0px"
	 width="340.178px" height="350.22px" viewBox="0 0 340.178 350.22" enable-background="new 0 0 340.178 350.22"
	 xml:space="preserve">
<path fill="none" stroke="#D5D5D5" stroke-width="14.7806" stroke-linecap="round" stroke-miterlimit="10" d="M132.429,271.735
	c0,0,6.686,46.605,56.369,42.33c68.451-5.891,28.826-113.387,91.596-105.965"/>
<path fill="none" stroke="#FFFFFF" stroke-width="1.9965" stroke-miterlimit="10" d="M82.583,234.586"/>
<path fill="#EBECEB" d="M131.983,231.894l66.193-0.486c0,0-15.48,21.489-33.097,28.909c-17.616,7.421-18.291,10.456-17.954,14.841
	c0.338,4.385-15.836,3.711-15.836,3.711L131.983,231.894z"/>
<path fill="#E1E0E0" d="M132.413,231.894l-66.868-0.486c0,0,15.479,21.489,33.097,28.909c17.615,7.421,18.291,10.456,17.953,14.841
	s15.836,3.711,15.836,3.711L132.413,231.894z"/>
<g>
	<path opacity="0.2" fill="#FFFFFF" d="M133.007,1.988c0,0,88.063-7.615,122.311,87.151c34.25,94.767-50.392,124.637-50.392,124.637
		l-72.069-0.073"/>
	<path opacity="0.1" fill="#FFFFFF" d="M132.669,213.703l-73.903-0.032c0,0-82.765-29.989-48.38-124.706
		C44.769-5.753,132.82,1.987,132.82,1.987"/>
</g>
<g>
	<path opacity="0.2" fill="none" stroke="#FFFFFF" stroke-width="4.0475" stroke-miterlimit="10" d="M133.007,2.177
		c0,0,88.063-7.613,122.311,87.151c34.249,94.767-50.393,124.637-50.393,124.637l-72.068-0.072"/>
	<path opacity="0.1" fill="none" stroke="#FFFFFF" stroke-width="4.0475" stroke-miterlimit="10" d="M132.669,213.893l-73.902-0.032
		c0,0-82.766-29.989-48.381-124.707C44.769-5.563,132.819,2.177,132.819,2.177"/>
</g>
<path fill="#FFFFFF" d="M209.097,217.062c0,1.812-2.318,3.278-5.178,3.277l-144.342-0.104c-2.858-0.002-5.175-1.474-5.174-3.286l0,0
	c0.002-1.812,2.32-3.28,5.179-3.276l144.341,0.103C206.782,213.776,209.099,215.249,209.097,217.062L209.097,217.062z"/>
<path fill="#EBECEB" d="M209.093,223.205c0,1.813-2.319,3.281-5.18,3.278l-144.34-0.104c-2.859-0.002-5.176-1.474-5.174-3.286l0,0
	c0.001-1.812,2.32-3.278,5.178-3.278l144.342,0.104C206.778,219.922,209.095,221.393,209.093,223.205L209.093,223.205z"/>
<path fill="#FFFFFF" d="M209.089,229.35c-0.002,1.813-2.32,3.28-5.18,3.279l-144.34-0.103c-2.859-0.002-5.176-1.474-5.174-3.287l0,0
	c0-1.811,2.318-3.28,5.178-3.278l144.342,0.104C206.774,226.067,209.09,227.538,209.089,229.35L209.089,229.35z"/>
<path opacity="0.1" d="M132.621,232.577l-73.052-0.051c-2.859-0.002-5.176-1.474-5.174-3.287c0-1.408,1.404-2.604,3.371-3.069
	c-1.967-0.468-3.369-1.666-3.367-3.076c0.002-1.408,1.404-2.605,3.371-3.068c-1.966-0.469-3.368-1.667-3.367-3.076
	c0.002-1.812,2.32-3.28,5.179-3.276l73.241,0.051L132.621,232.577z"/>
<path fill="#F6BD63" d="M280.394,208.101c-0.397,2.001,1.307,4.026,3.809,4.523l17.285,3.43c2.5,0.496,4.85-0.726,5.248-2.727l0,0
	c0.396-2.003-1.309-4.027-3.809-4.523l-17.287-3.43C283.14,204.877,280.79,206.098,280.394,208.101L280.394,208.101z"/>
<path d="M326.894,328.732"/>
<path fill="#F8B032" d="M308.173,229.343l-0.826-0.164c-4.449-0.883-7.484-4.486-6.777-8.05l4.885-24.616
	c0.707-3.562,5.715-5.571,10.164-4.688l0,0L308.173,229.343z"/>
<path fill="#F6BD63" d="M307.519,229.213l0.826,0.164c4.451,0.884,8.631-1.289,9.338-4.852l4.885-24.616
	c0.707-3.564-3.152-7.331-7.604-8.215l0,0L307.519,229.213z"/>
<path fill="#F8E07B" d="M288.835,187.27c-0.896,4.515,2.949,9.083,8.59,10.202l30.789,6.109c5.641,1.119,10.938-1.634,11.834-6.15
	l0,0c0.896-4.515-2.949-9.082-8.59-10.201l-30.789-6.11C295.028,180.001,289.731,182.754,288.835,187.27L288.835,187.27z"/>
<path fill="#F9F3CB" d="M312.819,200.526l15.395,3.055c5.641,1.119,10.938-1.634,11.834-6.15l0,0
	c0.896-4.515-2.949-9.082-8.59-10.201l-15.395-3.055L312.819,200.526z"/>
<path fill="#F8E07B" d="M272.875,247.457l1.312-6.608c2.609-13.155,18.046-21.177,34.479-17.916l0,0l-6.061,30.538L272.875,247.457z
	"/>
<polygon fill="#F8B032" points="259.658,313.273 272.875,246.665 302.605,252.679 289.432,319.072 "/>
<path fill="#F8E07B" d="M289.64,317.991l-29.773-5.799l-1.115,5.62c-2.61,13.155,8.594,26.463,25.025,29.724l0,0L289.64,317.991"/>
<path fill="#F9F3CB" d="M331.888,259.265l1.311-6.608c2.611-13.156-8.592-26.463-25.023-29.724l0,0l-6.061,30.538L331.888,259.265z"
	/>
<polygon fill="#F6BD63" points="318.671,325.081 331.888,258.473 302.114,252.679 288.94,319.072 "/>
<path fill="#F9F3CB" d="M289.142,317.963l29.777,5.771l-1.068,5.629c-2.506,13.176-17.877,21.319-34.335,18.19l0,0L289.142,317.963"
	/>
<path fill="#F8B032" d="M286.864,198.425c-2.5-0.496-4.85,0.725-5.246,2.727l-2.746,13.839c-0.398,2.002,1.307,4.027,3.809,4.523
	l0,0c2.5,0.495,4.85-0.725,5.246-2.727l2.746-13.839C291.07,200.945,289.364,198.921,286.864,198.425L286.864,198.425z"/>
<circle fill="#5974B7" cx="282.42" cy="300.987" r="3.606"/>
<path fill="#5974B7" d="M292.681,301.43c-3.965-0.8-6.531-4.664-5.729-8.628c0.801-3.967,4.664-6.532,8.628-5.733L292.681,301.43z"
	/>
<path fill="#7491CE" d="M292.341,301.396c3.967,0.803,7.829-1.763,8.631-5.729c0.8-3.965-1.766-7.828-5.731-8.631L292.341,301.396z"
	/>
<circle fill="#7491CE" cx="307.362" cy="284.649" r="2.027"/>
<circle fill="#7491CE" cx="309.677" cy="275.464" r="2.478"/>
<path fill="#5974B7" d="M298.528,271.353c-1.837-0.743-2.941-2.71-2.537-4.723c0.404-1.993,2.151-3.369,4.106-3.373L298.528,271.353
	z"/>
<path fill="#7491CE" d="M298.322,271.337c0.238,0.096,0.49,0.173,0.752,0.225c2.275,0.459,4.492-1.011,4.953-3.287
	c0.459-2.274-1.013-4.493-3.29-4.953c-0.284-0.057-0.567-0.083-0.847-0.082L298.322,271.337z"/>
</svg>
