<?xml version="1.0" encoding="utf-8"?>
<!-- Generator: Adobe Illustrator 16.0.0, SVG Export Plug-In . SVG Version: 6.00 Build 0)  -->
<!DOCTYPE svg PUBLIC "-//W3C//DTD SVG 1.1//EN" "http://www.w3.org/Graphics/SVG/1.1/DTD/svg11.dtd">
<svg version="1.1" id="Calque_1" xmlns="http://www.w3.org/2000/svg" xmlns:xlink="http://www.w3.org/1999/xlink" x="0px" y="0px"
	 width="105.191px" height="59.469px" viewBox="0 0 105.191 59.469" enable-background="new 0 0 105.191 59.469"
	 xml:space="preserve">
<g>
	<path fill="#BA4D96" stroke="#BA4D96" stroke-width="2.0858" stroke-linecap="round" stroke-miterlimit="10" d="M104.109,38.213
		c0,0-38.158-9.247-56.305-24.264C29.657-1.066,12.183-1.623,6.489,5.925c-5.692,7.549-8.558,27.879-0.293,37.152
		c2.599,14.195,18.129,15.418,29.565,11.202c0,0,10.854,8.205,28.931,1.53c18.079-6.676,36.372-3.298,38.721-2.773
		C103.695,47.026,104.109,38.213,104.109,38.213z"/>
	<path fill="none" stroke="#AC3D87" stroke-width="2.0858" stroke-linecap="round" stroke-miterlimit="10" d="M35.761,54.279
		c0,0-6.054-21.648-3.559-24.607c2.496-2.961,11.426,3.736,11.426,3.736"/>
	<path fill="none" stroke="#AC3D87" stroke-width="2.0858" stroke-linecap="round" stroke-miterlimit="10" d="M30.127,1.274
		c0,0-11.341-2.459-14.037,8.646c-2.696,11.104-1.194,25.441-1.194,25.441"/>
	<path fill="none" stroke="#AC3D87" stroke-width="2.0858" stroke-linecap="round" stroke-miterlimit="10" d="M5.717,42.515
		c0,0-0.95-18.389,1.102-23.47"/>
</g>
</svg>
