<?xml version="1.0" encoding="utf-8"?>
<!-- Generator: Adobe Illustrator 16.0.0, SVG Export Plug-In . SVG Version: 6.00 Build 0)  -->
<!DOCTYPE svg PUBLIC "-//W3C//DTD SVG 1.1//EN" "http://www.w3.org/Graphics/SVG/1.1/DTD/svg11.dtd">
<svg version="1.1" id="Calque_1" xmlns="http://www.w3.org/2000/svg" xmlns:xlink="http://www.w3.org/1999/xlink" x="0px" y="0px"
	 width="55.581px" height="40.273px" viewBox="0 0 55.581 40.273" enable-background="new 0 0 55.581 40.273" xml:space="preserve">
<g>
	<path fill="#BA4E97" stroke="#BA4E97" stroke-width="1.727" stroke-linecap="round" stroke-miterlimit="10" d="M54.572,7.837
		c0,0-11.659-8.823-32.774-6.621C0.683,3.42-0.978,19.628,2.005,26.435c2.982,6.808,7.948,9.732,7.948,9.732
		s15.227,8.121,43.888-1.338C55.202,18.606,54.572,7.837,54.572,7.837z"/>
	<g>
		<path fill="none" stroke="#AD3E88" stroke-width="1.727" stroke-linecap="round" stroke-miterlimit="10" d="M17.553,18.777
			c0,0,2.575-2.108,5.647-2.82c3.072-0.71,6.622-4.389,6.959-4.37c0.336,0.017,19.195-6.592,24.175,7.513"/>
		<path fill="none" stroke="#AD3E88" stroke-width="1.727" stroke-linecap="round" stroke-miterlimit="10" d="M12.829,10.42
			c0,0,4.753-0.552,6.486-1.492c1.732-0.941,8.292-1.592,10.007,2.614"/>
	</g>
</g>
</svg>
