<?xml version="1.0" encoding="utf-8"?>
<!-- Generator: Adobe Illustrator 16.0.0, SVG Export Plug-In . SVG Version: 6.00 Build 0)  -->
<!DOCTYPE svg PUBLIC "-//W3C//DTD SVG 1.1//EN" "http://www.w3.org/Graphics/SVG/1.1/DTD/svg11.dtd">
<svg version="1.1" id="Calque_1" xmlns="http://www.w3.org/2000/svg" xmlns:xlink="http://www.w3.org/1999/xlink" x="0px" y="0px"
	 width="55.878px" height="40.824px" viewBox="0 0 55.878 40.824" enable-background="new 0 0 55.878 40.824" xml:space="preserve">
<g>
	<path fill="#C95EA0" stroke="#C95EA0" stroke-width="1.727" stroke-linecap="round" stroke-miterlimit="10" d="M2.667,5.381
		c0,0,12.428-7.55,33.232-3.13C56.703,6.668,56.84,22.97,53.234,29.431c-3.605,6.462-8.82,8.845-8.82,8.845
		s-15.912,6.475-43.545-5.96C1.033,16.029,2.667,5.381,2.667,5.381z"/>
	<path fill="none" stroke="#C35499" stroke-width="1.727" stroke-linecap="round" stroke-miterlimit="10" d="M38.491,20.181
		c0,0-2.365-2.37-5.356-3.401c-2.99-1.03-6.178-5.064-6.514-5.082c-0.336-0.019-18.485-8.585-24.759,4.926"/>
	<path fill="none" stroke="#C35499" stroke-width="1.727" stroke-linecap="round" stroke-miterlimit="10" d="M43.976,12.365
		c0,0-4.68-1.052-6.316-2.169c-1.636-1.119-8.101-2.459-10.203,1.546"/>
</g>
</svg>
